[1-,0-,0+]=[rho_770_-=[pi-[1,0]pi0][1,1]omega_782_0]
[1-,1+,0+]=[multiChannelRelativisticBreitWigner[b1_1235_-]=[omega_782_0[0,1]pi-][1,1]pi0]
[1-,1+,0+]=[multiChannelRelativisticBreitWigner[b1_1235_-]=[omega_782_0[2,1]pi-][1,1]pi0]
[1-,1+,1+]=[multiChannelRelativisticBreitWigner[b1_1235_-]=[omega_782_0[0,1]pi-][1,1]pi0]
[1-,1-,1+]=[multiChannelRelativisticBreitWigner[b1_1235_-]=[omega_782_0[0,1]pi-][0,1]pi0]
[1-,2+,1+]=[multiChannelRelativisticBreitWigner[b1_1235_-]=[omega_782_0[0,1]pi-][1,1]pi0]
[1-,2+,1+]=[multiChannelRelativisticBreitWigner[b1_1235_-]=[omega_782_0[2,1]pi-][1,1]pi0]
[1-,2+,1+]=[multiChannelRelativisticBreitWigner[rho_1450_-]=[omega_782_0[1,1]pi-][2,1]pi0]
[1-,2+,1+]=[rho_770_-=[pi-[1,0]pi0][2,0]omega_782_0]
[1-,2+,1+]=[rho_770_-=[pi-[1,0]pi0][2,1]omega_782_0]
[1-,2+,1+]=[rho_770_-=[pi-[1,0]pi0][2,2]omega_782_0]
[1-,2+,2+]=[multiChannelRelativisticBreitWigner[b1_1235_-]=[omega_782_0[0,1]pi-][1,1]pi0]
[1-,2-,0+]=[rho_770_-=[pi-[1,0]pi0][1,2]omega_782_0]
[1-,2-,1+]=[rho_770_-=[pi-[1,0]pi0][1,2]omega_782_0]
