75871	1.00287	0.994602
75872	1.00044	0.994507
75873	1.0033	0.994868
75884	0.95399	0.994886
75886	1.00919	0.995466
75887	1.00484	0.99501
75888	1.01083	0.995454
75890	1.00946	0.994895
75910	1.01722	0.995776
75911	1.01342	0.993464
75915	0.998418	0.994834
75916	1.00058	0.996719
75917	1.00365	0.996776
75918	1.00728	0.997094
75919	0.99587	0.996026
75920	1.00367	0.996068
75921	1.00718	0.995954
75924	0.999393	0.996584
75932	1.00904	0.995849
75933	0.999128	0.994374
75934	0.99681	0.99532
75935	1.01668	0.995986
75939	0.99938	0.995256
75940	0.998244	0.994727
75941	1.00052	0.9958
75942	1.0074	0.99545
75943	1.00385	0.997083
75949	1.00555	0.994884
75950	0.999881	0.995943
75976	1.01372	0.995701
75977	1.0009	0.995493
75989	0.995508	0.995252
75990	0.992314	0.996262
75995	0.997232	0.996072
75996	1.00452	0.994525
75997	0.992074	0.992088
76000	1.00045	0.994536
76001	1.00482	0.994961
76002	1.00216	0.995096
76215	0.999746	0.995764
76216	0.997563	0.995948
76217	0.99343	0.99601
76218	0.991715	0.995789
76234	1.00672	0.995489
76235	0.998225	0.993356
76238	1.01552	0.998534
76239	1.00534	0.995869
76240	1.00447	0.996804
76241	0.997946	0.99601
76242	1.00322	0.996132
76250	1.0029	0.996865
76258	1.00248	0.996747
76266	1.00425	0.996367
76270	1.00122	0.994887
76271	1.00114	0.995254
76272	1.00635	0.99672
76273	1.00939	0.998447
76274	1.00719	0.995107
76275	1.00403	0.996056
76276	1.00336	0.995242
76277	1.0041	0.995708
76314	0.999253	0.995707
76315	0.993968	0.995675
76317	0.999692	0.996231
76318	1.00273	0.995681
76319	0.998834	0.995724
76324	0.999026	0.995433
76325	1.00053	0.994311
76326	1.00343	0.996938
76335	1.00865	0.994435
76338	0.992054	0.994195
76340	1.00654	0.993273
76345	1.00533	0.99542
76347	0.99673	0.995306
76348	0.999947	0.9958
76349	1.00288	0.995799
76350	1.00676	0.995075
76351	0.999616	0.995406
76352	1.00175	0.996289
76357	1.00173	0.995752
76359	1.00449	0.995567
76360	1.00557	0.996269
76362	1.00238	0.994761
76363	1.00113	0.995749
76365	1.00007	0.9954
76366	1.00274	0.994745
76367	1.00507	0.995351
76372	1.00725	0.996482
76373	0.998399	0.99488
76374	1.00391	0.994222
76375	0.99721	0.996794
76376	0.999622	0.995257
76377	1.00389	0.996689
76387	1.00129	0.995369
76388	0.999105	0.995382
76390	0.996065	0.997157
78578	1.00462	0.995441
78579	1.00809	0.997115
78580	1.00824	0.996063
78581	1.00725	0.99722
78583	1.00633	0.997187
78587	1.00999	0.996517
78600	0.998363	0.997603
78601	1.00336	0.996364
78602	1.00707	0.996355
78603	1.0082	0.996537
78606	1.01029	0.996568
78607	1.01377	0.996841
78608	1.00119	0.997871
78619	1.00151	0.997369
78621	1.01083	0.996865
78622	1.00481	0.996834
78623	1.00542	0.996583
78624	1.01127	0.996621
78628	1.01162	0.997418
78632	1.00747	1.00009
78777	1.01075	0.996486
78778	1.01061	0.996779
78779	1.00737	0.996284
78781	1.00502	0.996775
78784	1.00785	0.997222
78785	1.00986	0.996567
78786	1.01017	0.99658
78787	1.01128	0.997404
78788	1.00846	0.996876
78789	1.00945	0.997374
78804	1.01482	0.997002
78805	1.01863	0.99711
78806	1.00284	0.996848
78810	1.01172	0.997267
78811	1.01	0.996811
78812	1.00728	0.998328
78814	1.00986	0.996945
78815	1.00626	0.996071
78884	1.00483	0.996735
78886	1.01528	0.996614
78887	1.01124	0.996793
78888	1.01017	0.997178
78889	1.0075	0.996128
78890	1.01067	0.995548
78905	1.01068	0.997091
78906	1.01047	0.997125
78912	0.99863	0.996073
78914	0.996032	0.996686
78916	1.00513	0.996387
78921	1.01333	0.994449
78922	1.00762	0.997218
78923	1.00854	0.996449
78924	1.00723	0.997761
78927	1.00537	0.996653
78928	1.01462	0.996314
78930	1.00803	0.996919
78932	1.01095	0.997011
78933	1.00482	0.996872
78934	1.01025	0.995738
78935	1.00149	0.995888
78936	1.00649	0.997074
78939	1.01024	0.99612
78941	1.01043	0.99713
78943	1.00638	0.99655
78944	1.00828	0.996663
78945	1.01312	0.99718
78946	1.0104	0.99689
78947	1.01016	0.997152
78948	1.01435	0.997367
78949	1.00753	0.997626
78950	1.00938	0.996895
78951	1.01047	0.997225
78952	1.01069	0.996081
78973	1.01007	0.996585
78976	1.0044	0.9966
78977	1.00309	0.997939
78978	1.01161	0.996148
78979	1.01463	0.997756
78984	1.01198	0.997294
78985	1.0077	0.997355
78986	1.0089	0.997746
78996	1.0094	0.997044
78997	1.01598	0.99668
78998	1.00993	0.996864
79000	1.01388	0.996666
79003	1.01327	0.996335
79033	1.01201	0.996284
79034	1.0079	0.997976
79035	1.011	0.996999
79038	1.00472	0.997085
79048	1.00973	0.996137
79049	1.00613	0.996374
79050	1.00947	0.996835
79051	1.01164	0.997019
79053	1.00885	0.996206
79055	1.01354	0.996973
79056	1.00569	0.996256
79057	1.01284	0.996991
79058	1.01617	0.996756
79059	1.00978	0.998032
79060	1.01196	0.997022
79061	1.00814	0.996076
79062	1.00571	0.996972
79063	1.00811	0.996822
79064	1.00984	0.994334
79065	1.00873	0.996549
79066	1.00639	0.99744
79067	1.00896	0.996924
79068	1.00933	0.996437
79069	1.01481	0.998067
79071	1.00404	0.997136
79073	1.01473	0.994848
79082	1.00695	0.996505
79083	1.01124	0.996501
79089	1.01389	0.997061
79090	1.00954	0.996669
79091	1.00669	0.996534
79092	1.0059	0.997038
79094	1.00618	0.996908
79095	1.00868	0.997073
79096	1.01003	0.996647
79097	1.01139	0.996452
79098	1.00724	0.997297
79103	1.00854	0.997769
79104	0.999718	1.0011
79109	1.00508	0.997628
79110	1.01056	0.997404
79115	1.00875	0.99737
79116	1.01092	0.99794
79122	1.01025	0.996774
79123	1.00665	0.997431
79125	1.01432	0.997204
79126	1.00717	0.997367
79127	1.01095	0.997367
79131	1.0145	0.997105
79132	1.00815	0.997288
79133	1.00756	0.997553
79135	1.00814	0.996806
79136	1.00985	0.996547
79137	1.01381	0.997614
79140	1.00755	0.99659
79141	1.00981	0.996718
79142	1.0062	0.99774
79143	1.00803	0.996372
79144	1.00411	0.997513
79147	1.00715	0.996679
