69595 1.03686 0.961767
69611 0.980409 0.961355
69612 0.981255 0.981209
69613 0.97949 0.981815
69616 0.980329 0.982656
69619 0.977098 0.984742
69621 0.980705 0.958596
69623 0.980332 0.962205
69625 0.981214 0.960856
69641 0.977934 0.986059
69643 0.98742 0.961106
69645 0.986449 0.986232
69646 0.987592 0.987547
69649 0.974201 0.96796
69664 0.973841 0.980782
69666 0.972899 0.981237
69667 0.976706 0.987227
69669 0.976326 0.968908
69672 0.975679 0.967543
69678 0.977975 0.96776
69679 0.978554 0.967714
69681 0.978964 0.967623
69682 0.979884 0.96759
69683 0.979578 0.967977
69685 0.978806 0.96811
69686 0.98013 0.990555
69687 0.979841 0.990331
69688 0.981553 0.990041
69689 0.979492 0.991364
69690 0.980275 0.969444
69692 0.976652 0.988269
69697 0.968561 0.986707
69701 0.968197 0.987013
69702 0.967216 0.987225
69715 0.975286 0.990624
69716 0.974571 0.990904
69717 0.981824 0.990518
69721 0.981856 0.989019
69722 0.98155 0.989351
69724 0.979661 0.989396
69726 0.974421 0.987208
69727 0.968876 0.987296
69730 0.966103 0.987924
69738 0.968653 0.992092
69742 0.968284 0.993541
69743 0.968335 0.993636
69744 0.970529 0.994444
69745 0.972832 0.994577
69752 0.974977 0.994153
69754 0.97309 0.993501
69755 0.971926 0.993882
69756 0.970488 0.992857
69758 0.967046 0.991405
69759 0.96486 0.991612
69764 0.964634 0.992296
69765 0.963208 0.992749
69786 0.970891 0.992561
69787 0.971474 0.992469
69790 0.974276 0.991744
69792 0.976153 0.991724
69794 0.974822 0.991258
69795 0.974326 0.99012
69797 0.972785 0.988863
69798 0.973577 0.988539
69802 0.98346 0.98918
69803 0.980053 0.989385
69807 0.97971 0.987473
69808 0.980346 0.989388
69811 0.977855 0.988796
69816 0.973856 0.989903
69843 0.980151 0.990384
69844 0.981098 0.990632
69845 0.981079 0.992672
69846 0.971153 0.988168
69847 0.967694 0.989014
69848 0.968151 0.98917
69849 0.96665 0.988973
69850 0.965706 0.989987
69851 0.9652 0.990024
69852 0.968709 0.991222
69853 0.972711 0.991969
69854 0.976077 0.991687
69855 0.97787 0.991907
69857 0.98057 0.991519
69873 0.976222 0.98938
69874 0.974151 0.989376
69881 0.973121 0.989301
69884 0.972405 0.988421
69886 0.97078 0.98708
69887 0.978895 0.99132
69888 0.979943 0.991817
69894 0.978281 0.989428
69898 0.972881 0.987781
69900 0.972267 0.988079
69901 0.97611 0.989373
69908 0.978726 0.975849
69909 0.979344 0.978066
69910 0.982897 0.989584
69911 0.984296 0.975533
69913 0.985535 0.972557
69917 0.984076 0.987535
69918 0.977645 0.986059
69919 0.973083 0.986858
69927 0.970317 0.988263
69929 0.972566 0.988583
69930 0.975179 0.989967
69932 0.976433 0.990058
69933 0.978888 0.990947
69934 0.97921 0.991135
69935 0.979678 0.990763
69938 0.974801 0.988701
69939 0.971281 0.988623
69940 0.969278 0.98831
69943 0.965412 0.989694
69946 0.966324 0.990112
69950 0.966615 0.989706
69951 0.969781 0.989522
69952 0.972215 0.99082
69955 0.974341 0.992378
69957 0.973046 0.991069
69958 0.978579 0.992211
69959 0.978646 0.991827
69962 0.978165 0.992253
69966 0.972333 0.988588
69969 0.970928 0.988404
69970 0.965774 0.989623
69973 0.964533 0.990506
69977 0.961937 0.990267
69979 0.961 0.990701
69981 0.964081 0.991572
69982 0.961679 0.989872
69983 0.960406 0.988191
69984 0.973197 0.991965
69985 0.975508 0.9923
69986 0.974586 0.991977
70049 0.967039 0.989599
70053 0.966417 0.991741
70054 0.966976 0.992044
70057 0.966446 0.992258
70069 0.963178 0.99567
70095 0.966714 1.000417
70096 0.959343 0.990467
70097 0.960471 0.989868
70100 0.954757 0.988829
70101 0.953864 0.988727
70105 0.952949 0.98912
70106 0.955375 0.989602
70109 0.959007 0.98986
70110 0.957605 0.988488
70113 0.955577 0.987569
70116 0.953142 0.986534
70118 0.974756 0.991795
70119 0.973635 0.99029
70120 0.974916 0.990783
70125 0.976749 0.995472
70127 0.969887 0.98792
70131 0.970882 0.986216
70133 0.970602 0.988529
70134 0.973473 0.986241
70137 0.972275 0.98597
70142 0.972383 0.985522
70143 0.97256 0.98654
70144 0.955284 0.989277
70146 0.955916 0.989547
70149 0.955451 0.98843
70151 0.954707 0.989169
70152 0.954194 0.987576
70159 0.952213 0.986743
70160 0.952135 0.986582
70161 0.971407 0.990343
70162 0.973878 0.990263
70164 0.976112 0.99044
70167 0.972208 0.988654
70171 0.964332 0.987546
70172 0.964129 0.988765
70173 0.95943 0.988482
70174 0.954596 0.989584
70175 0.956236 0.990135
70177 0.954144 0.99264
70179 0.953605 0.991054
70181 0.964091 0.99148
70182 0.964936 0.992091
70183 0.966899 0.992653
70184 0.966858 0.992672
70186 0.967837 0.99253
70188 0.969711 0.992157
70189 0.970531 0.991179
70190 0.967782 0.990084
70193 0.959989 0.988431
70194 0.954736 0.989365
70195 0.951017 0.989784
70196 0.95228 0.989533
70204 0.952592 0.989934
70208 0.952916 0.990448
70209 0.953212 0.990715
70223 0.95299 0.987545
70229 0.952863 0.989427
70230 0.952524 0.989365
70231 0.952115 0.990278
70233 0.951977 0.989014
70234 0.951921 0.987985
70235 0.95126 0.988502
70236 0.952705 0.987889
70239 0.950439 0.987605
70240 0.950084 0.987028
70241 0.949639 0.985491
70242 0.963718 0.992421
70243 0.963678 0.992789
70244 0.959216 0.991012
70245 0.956073 0.990156
70248 0.955005 0.990877
70250 0.952925 0.993261
70251 0.954213 0.991133
70253 0.958216 0.992219
70254 0.955763 0.992606
70255 0.966366 0.992925
70256 0.968972 0.991435
70260 0.970771 0.991795
70264 0.973917 0.991352
70265 0.975287 0.991707
70278 0.969941 0.989604
70280 0.968116 0.988846
70281 0.964476 0.9879
70282 0.965291 0.987217
70284 0.96082 0.989976
70285 0.958961 0.988816
70286 0.957889 0.989034
70287 0.956692 0.989274
70288 0.957671 0.990161
70289 0.960316 0.991654
70291 0.961257 0.991403
70296 0.962349 0.99231
70298 0.963265 0.994602
70302 0.964632 0.992928
70304 0.963648 0.991869
70306 0.969641 0.992742
70307 0.970576 0.99248
70308 0.972751 0.991918
70309 0.969524 0.99113
70311 0.966763 1.009356
70315 0.962215 0.989815
70317 0.960134 0.986558
70322 0.957911 0.989001
70323 0.957793 0.989674
70326 0.959869 0.991017
70327 0.959545 0.987456
70328 0.96381 0.991887
70334 0.966844 0.992632
70335 0.968095 0.992419
70336 0.969058 0.992674
70338 0.970573 0.992578
70339 0.972798 0.992164
70340 0.972323 0.991442
70341 0.972453 0.991455
70379 0.964325 0.99009
70384 0.964573 0.989689
70385 0.966473 0.990391
70386 0.966858 1.0
70391 0.966833 0.9908
70393 0.965079 0.989474
70394 0.96904 0.990567
70395 0.969255 0.990715
70396 0.969545 0.990756
70399 0.970271 0.990939
70401 0.972221 0.99127
70402 0.973397 0.991165
70407 0.975038 0.990754
70408 0.976111 0.990301
70414 0.975081 0.989706
70416 0.977865 0.989417
70417 0.978812 0.990179
70418 0.9793 0.989802
70420 0.979865 0.989698
70421 0.978594 0.986258
70422 0.98344 0.988908
70423 0.979942 0.988982
70424 0.977605 0.98763
70425 0.976048 0.986942
70426 0.975111 0.98756
70427 0.971982 0.985231
70429 0.970379 0.985083
70432 0.970311 0.985647
70433 0.973817 0.987436
70434 0.975994 0.988829
70435 0.976195 0.988722
70439 0.978547 0.989474
70440 0.977844 0.98949
70442 0.977821 0.98928
70443 0.979279 0.988937
70447 0.979804 0.989119
70448 0.981661 1.0
70450 0.965987 1.016506
70451 0.964831 1.016791
70452 0.959571 1.014005
70454 0.956545 1
70457 0.953489 1.015424
70458 0.951749 1.01529
70459 0.951661 1.014514
70460 0.95356 1.015607
70461 0.955621 1.016167
70462 0.956859 1.016746
70466 0.960201 1.017572
70477 0.965883 1.015899
70478 0.967509 1.01551
70479 0.969307 1.015522
70481 0.970318 1.01474
70482 0.967551 1.015499
70487 0.961705 1.013135
70491 0.961475 1.012939
70492 0.955091 1.013836
70494 0.955709 1.013448
70499 0.953277 1.013655
70501 0.957382 1.014565
70502 0.954662 1.014909
70503 0.956125 1.015462
70506 0.958952 1.015554
70507 0.960583 1.015835
70508 0.964275 1.015383
70509 0.959939 1.016272
70511 0.9561 1.014609
70513 0.95395 1.01399
70514 0.952444 1.013924
70516 0.945779 1.01846
70517 0.944372 1.01531
70518 0.945715 1.016256
70519 0.948122 1.016765
70522 0.949827 1
70533 0.954539 1
70538 0.954853 1.018607
70540 0.955417 1
70541 0.955802 1.01806
70549 0.9567 1.017586
70550 0.956395 1.017059
70551 0.956658 1.018397
70555 0.953925 1.016547
70556 0.951812 1.016893
70559 0.949463 1
70560 0.949622 1.018845
70563 0.950615 1.017647
70574 0.951331 1.017638
70575 0.950317 1.01681
70576 0.952407 1.017851
70578 0.954061 1.018339
70579 0.956428 1.01826
70580 0.957993 1.017754
70583 0.958727 1.017263
70584 0.959658 1
70588 0.96096 1.016098
70589 0.961699 1.01584
70594 0.9627 1
70595 0.963928 1.016146
70596 0.964606 1.016033
70597 0.965496 1.015947
70599 0.966379 1.01569
70600 0.966462 1.015358
70602 0.967085 1.01412
70603 0.967394 1
70604 0.967187 1.015481
70605 0.967723 1
70606 0.968488 1.015319
70607 0.96751 1.015143
70609 0.967826 1.014352
70610 0.968408 1.013812
70611 0.968446 1.014144
70612 0.970015 1.01596
70613 0.970471 1.01427
70614 0.971871 1.014276
70615 0.971703 1.013515
70616 0.972424 1.015759
70617 0.972855 1.013217
70629 0.971198 1.010481
70631 0.972293 1.010034
70632 0.972201 1.010315
70636 0.97259 1.010383
70637 0.973161 1.009949
70639 0.974357 1.010103
70641 0.975658 1.009115
70642 0.976352 1.008506
70645 0.976311 1.007524
70646 0.977813 1.007698
70647 0.979328 1.005644
70650 0.973399 1.0016
70654 0.973527 1.001768
70656 0.973435 1.001162
70659 0.973412 1.001853
70660 0.974831 1.003075
70661 0.976831 1.00472
70662 0.978753 1.004342
70663 0.977151 1.003716
70664 0.978977 1.003961
70665 0.978383 1.003856
70668 0.978504 1.003682
70669 0.978873 1.001688
70670 0.980366 1
70671 0.979553 1.000947
70672 0.981249 1.001813
70676 0.980985 1.003273
70701 0.974689 1.00003
70702 0.975676 1
70705 0.97456 0.998763
70707 0.975624 0.997985
70708 0.975846 0.998245
70709 0.976226 0.998462
70711 0.976212 1
70712 0.975564 0.999249
70714 0.976942 0.999178
70715 0.976897 1.000522
70717 0.978768 0.999629
70718 0.97922 0.999749
70719 0.978725 1.000083
70720 0.97681 0.99906
70725 0.978312 1.000863
70759 0.972398 0.999542
70761 0.972916 1.000792
70762 0.972551 1
70763 0.972404 1.001125
70766 0.973297 1.001077
70767 0.974213 1.001282
70768 0.975571 1.00112
70769 0.976241 1.00181
70773 0.975813 1.002004
70812 0.967732 1.001255
70813 0.967138 1
70814 0.9678 1.001437
70815 0.969755 1.002258
70816 0.970216 1.002774
70818 0.972182 1.003305
70822 0.9733 1.004374
70823 0.974561 1.003166
70824 0.977368 1.002699
70825 0.977614 1.003095
70829 0.977411 1.003381
70830 0.978444 1.003945
70832 0.975957 1.001773
70847 0.972298 1.001336
70848 0.973814 1.001383
70850 0.975953 1.002319
70856 0.977158 1.002053
70857 0.978217 1.002077
70858 0.978055 1.001769
70860 0.97929 1.003247
70862 0.980475 1.001264
70863 0.981596 1.000933
70867 0.980581 1.00162
70868 0.980883 1.001522
70872 0.981193 1.001277
70874 0.981321 1
70881 0.982506 1
70892 0.979816 0.998484
70894 0.980371 0.998882
70895 0.981008 1.00122
70896 0.981225 1.000932
70897 0.980891 0.999616
70899 0.980607 0.999476
70900 0.982224 0.998998
70901 0.983283 0.999664
70905 0.982815 0.99993
70906 0.98316 0.998299
70907 0.984649 0.997741
70908 0.984719 1
70909 0.984262 0.996788
70910 0.986021 0.997529
70913 0.982284 0.995886
70914 0.978906 0.994889
70915 0.977392 0.994184
70919 0.976135 1
70920 0.978151 0.994941
70921 0.979356 0.995581
70922 0.980053 1
70925 0.980994 0.996758
70927 0.980654 0.996535
70928 0.981101 0.996023
70929 0.982233 0.995793
70930 0.982007 0.995846
70931 0.982814 0.995994
70932 0.982136 0.99558
70933 0.979749 0.99358
70934 0.978662 0.993009
70935 0.977969 0.992868
70936 0.979763 0.993302
70938 0.980483 0.993968
70942 0.981235 0.99564
70943 0.983456 0.994913
70945 0.985399 0.994975
70946 0.986087 0.993936
70962 0.983783 0.995995
70963 0.984801 0.996628
