[1-,0-,0+]=[rho_770_-=[pi-[1,0]pi0][1,1]omega_782_0]
[1-,1+,0+]=[rho_1450_-=[omega_782_0[1,1]pi-][0,1]pi0]
[1-,1+,0+]=[rho_1450_-=[omega_782_0[1,1]pi-][2,1]pi0]
[1-,1+,0+]=[rho_770_-=[pi-[1,0]pi0][0,1]omega_782_0]
[1-,1+,0+]=[rho_770_-=[pi-[1,0]pi0][2,1]omega_782_0]
[1-,2+,1+]=[b1_1235_-=[omega_782_0[0,1]pi-][1,1]pi0]
[1-,2+,1+]=[rho_770_-=[pi-[1,0]pi0][0,2]omega_782_0]
[1-,2-,0+]=[rho_770_-=[pi-[1,0]pi0][1,1]omega_782_0]
[1-,2-,0+]=[rho_770_-=[pi-[1,0]pi0][3,2]omega_782_0]
[1-,3+,0+]=[rho3_1690_-=[omega_782_0[3,1]pi-][0,3]pi0]
[1-,3+,0+]=[rho_1450_-=[omega_782_0[1,1]pi-][2,1]pi0]
[1-,3+,0+]=[rho_1450_-=[omega_782_0[1,1]pi-][4,1]pi0]
[1-,3+,0+]=[rho_770_-=[pi-[1,0]pi0][2,1]omega_782_0]
[1-,3+,0+]=[rho_770_-=[pi-[1,0]pi0][2,2]omega_782_0]
[1-,3+,0+]=[rho_770_-=[pi-[1,0]pi0][4,1]omega_782_0]
[1-,3-,1+]=[rho_1450_-=[omega_782_0[1,1]pi-][3,1]pi0]
[1-,3-,1+]=[rho_770_-=[pi-[1,0]pi0][1,2]omega_782_0]
[1-,3-,1+]=[rho_770_-=[pi-[1,0]pi0][3,0]omega_782_0]
[1-,4+,1+]=[b1_1235_-=[omega_782_0[0,1]pi-][3,1]pi0]
[1-,4-,0+]=[rho3_1690_-=[omega_782_0[3,1]pi-][1,3]pi0]
[1-,4-,0+]=[rho_770_-=[pi-[1,0]pi0][5,2]omega_782_0]
[1-,4-,1+]=[b1_1235_-=[omega_782_0[0,1]pi-][4,1]pi0]
[1-,5+,0+]=[b1_1235_-=[omega_782_0[0,1]pi-][5,1]pi0]
[1-,5+,0+]=[rho3_1690_-=[omega_782_0[3,1]pi-][2,3]pi0]
[1-,5+,0+]=[rho_1450_-=[omega_782_0[1,1]pi-][6,1]pi0]
[1-,5+,0+]=[rho_770_-=[pi-[1,0]pi0][4,1]omega_782_0]
[1-,5+,0+]=[rho_770_-=[pi-[1,0]pi0][4,2]omega_782_0]
[1-,5+,0+]=[rho_770_-=[pi-[1,0]pi0][6,1]omega_782_0]
[1-,5+,1+]=[b1_1235_-=[omega_782_0[0,1]pi-][5,1]pi0]
[1-,5+,1+]=[rho_770_-=[pi-[1,0]pi0][6,1]omega_782_0]
[1-,5-,1+]=[rho_1450_-=[omega_782_0[1,1]pi-][5,1]pi0]
[1-,5-,1+]=[rho_770_-=[pi-[1,0]pi0][3,2]omega_782_0]
[1-,5-,1+]=[rho_770_-=[pi-[1,0]pi0][5,2]omega_782_0]
[1-,6-,0+]=[b1_1235_-=[omega_782_0[0,1]pi-][6,1]pi0]
[1-,6-,0+]=[rho3_1690_-=[omega_782_0[3,1]pi-][3,3]pi0]
[1-,6-,0+]=[rho_770_-=[pi-[1,0]pi0][7,2]omega_782_0]
[1-,6-,1+]=[b1_1235_-=[omega_782_0[0,1]pi-][6,1]pi0]
[1-,7+,0+]=[b1_1235_-=[omega_782_0[0,1]pi-][7,1]pi0]
[1-,7+,0+]=[rho3_1690_-=[omega_782_0[3,1]pi-][4,3]pi0]
[1-,7+,0+]=[rho_770_-=[pi-[1,0]pi0][6,1]omega_782_0]
[1-,7-,1+]=[rho_1450_-=[omega_782_0[1,1]pi-][7,1]pi0]
[1-,7-,1+]=[rho_770_-=[pi-[1,0]pi0][5,2]omega_782_0]
[1-,7-,1+]=[rho_770_-=[pi-[1,0]pi0][7,2]omega_782_0]
