[1-,1+,0+]=[b1_1235_-=[omega_782_0[0,1]pi-][1,1]pi0]
[1-,1+,0+]=[rho_1450_-=[omega_782_0[1,1]pi-][0,1]pi0]
[1-,1+,0+]=[rho_770_-=[pi-[1,0]pi0][0,1]omega_782_0]
[1-,1+,1+]=[b1_1235_-=[omega_782_0[0,1]pi-][1,1]pi0]
[1-,1+,1+]=[rho_1450_-=[omega_782_0[1,1]pi-][0,1]pi0]
[1-,2+,1+]=[b1_1235_-=[omega_782_0[0,1]pi-][1,1]pi0]
[1-,2+,1+]=[rho_1450_-=[omega_782_0[1,1]pi-][2,1]pi0]
[1-,2+,1+]=[rho_770_-=[pi-[1,0]pi0][0,2]omega_782_0]
[1-,2+,1+]=[rho_770_-=[pi-[1,0]pi0][2,0]omega_782_0]
[1-,2+,1+]=[rho_770_-=[pi-[1,0]pi0][2,2]omega_782_0]
[1-,2+,2+]=[rho3_1690_-=[omega_782_0[3,1]pi-][2,3]pi0]
[1-,2+,2+]=[rho_770_-=[pi-[1,0]pi0][0,2]omega_782_0]
